1;ana123;ana123;Ana;Simic;ZENSKO;12/10/1999 00:00:00;KUPAC;186200;ZLATNI;7;30001;False
2;sara;sara123;Sara;Senic;ZENSKO;7/01/2020 00:00:00;KUPAC;0;OBICNI;0;0;False
3;nikola;niko;Nikola;Nikic;MUSKO;7/02/2020 00:00:00;KUPAC;0;OBICNI;0;0;False
4;milica;milica10;Milica;Simeunovic;ZENSKO;12/10/1997 00:00:00;KUPAC;0;OBICNI;0;0;True
5;dusica;dusica1;Dusica;Vasic;ZENSKO;8/20/1998 00:00:00;KUPAC;14430.5;BRONZANI;3;10001;False
6;Rade;rade123;Radislav;Stevanovic;MUSKO;8/20/1997 00:00:00;KUPAC;324306.003;ZLATNI;7;30001;False
