1;MAJSTOR I MARGARITA;POZORISTE;200;20;50;270;9/23/2020 08:00:00;250;ZAVRSENO;~/Images/5871dfb79adaf.jpg;Sutjeska 4,Novi Sad,21000;True;1;-1;195;20;47
2;JAZAVAC PRED SUDOM;BIOSKOP;300;60;50;410;9/24/2020 20:30:00;200;ZAVRSENO;~/Images/jazavac-pred-sudom-474-279-6154.jpg;Puskinova 10,Bijeljina,76300;True;1;-1;303;45;50
3;Jazz festival;FESTIVAL;500;100;90;690;9/27/2020 15:00:00;250;OTKAZANO;~/Images/download.jpg;Podrinjska 44,Novi Sad,21000;False;2;-1;500;100;85
4;Dani komedije;POZORISTE;500;200;150;850;9/29/2020 20:00:00;300;NEAKTIVNO;~/Images/unnamed.jpg;Sutjeska 13,Bijeljina,76300;False;2;-1;500;200;150
5;Zdravko Colic;KONCERT;600;250;100;950;9/30/2020 19:00:00;300;NEAKTIVNO;~/Images/91NRIHmrBHL._SS500_.jpg;Podrinjska 44,Bijeljina,76300;False;2;-1;600;250;100
6;Pozoriste u kuci;POZORISTE;600;150;100;850;9/22/2020 11:44:00;350;ZAVRSENO;~/Images/20151009124602_329861.jpg;Puskinova 14,Novi Sad,21000;True;1;-1;597;139;85
7;Lepa Brena;KONCERT;250;110;120;480;10/01/2020 16:00:00;500;ZAVRSENO;~/Images/lepa-Brena-Andreja-Damnjanovic-1-intervju-hello-1140x815-1.jpg;Podrinjska 44,Bijeljina,76300;True;1;-1;252;110;120
8;nova;KONCERT;10;10;10;30;9/23/2020 10:00:00;100;NEAKTIVNO;~/Images/SO-HRT_MC1-90god_fotoDinkoBazulic_04.jpg;Podrinjska -8,Bijeljina,-888;False;1;-1;10;10;10
9;Lepa Brena;KONCERT;100;100;100;300;10/11/2020 15:09:00;100;NEAKTIVNO;~/Images/lepa-Brena-Andreja-Damnjanovic-1-intervju-hello-1140x815-1.jpg;Podrinjska 10,Bijeljina,76300;False;1;-1;100;100;100
