1234517828;1;MAJSTOR I MARGARITA;POZORISTE;200;20;50;270;9/23/2020 08:00:00;250;ZAVRSENO;~/Images/5871dfb79adaf.jpg;Sutjeska 4,Novi Sad,21000;True;1;1250;6;Rade;rade123;Radislav;Stevanovic;MUSKO;8/20/1997 00:00:00;KUPAC;322721.175;ZLATNI;7;30001;False;REZERVISANA;REGULAR;5;1;-1;195;20;47
1234536633;2;JAZAVAC PRED SUDOM;BIOSKOP;300;60;50;410;9/24/2020 20:30:00;200;ZAVRSENO;;Puskinova 10,Bijeljina,76300;True;1;8000;6;Rade;rade123;Radislav;Stevanovic;MUSKO;8/20/1997 00:00:00;KUPAC;322721.175;ZLATNI;7;30001;False;REZERVISANA;VIP;10;2;-1;303;45;50
1234569904;6;Pozoriste u kuci;POZORISTE;600;150;100;850;9/22/2020 11:44:00;350;ZAVRSENO;~/Images/20151009124602_329861.jpg;Puskinova 14,Novi Sad,21000;True;1;10426.5;6;Rade;rade123;Radislav;Stevanovic;MUSKO;8/20/1997 00:00:00;KUPAC;322721.175;ZLATNI;7;30001;False;REZERVISANA;FAN_PIT;15;3;-1;597;149;85
1234524342;2;JAZAVAC PRED SUDOM;BIOSKOP;300;60;50;410;9/24/2020 20:30:00;200;ZAVRSENO;;Puskinova 10,Bijeljina,76300;True;1;1600;5;dusica;dusica1;Dusica;Vasic;ZENSKO;8/20/1998 00:00:00;KUPAC;14430.5;BRONZANI;3;10001;False;REZERVISANA;VIP;2;4;-1;303;45;50
1234528945;6;Pozoriste u kuci;POZORISTE;600;150;100;850;9/22/2020 11:44:00;350;ZAVRSENO;~/Images/20151009124602_329861.jpg;Puskinova 14,Novi Sad,21000;True;1;1050;5;dusica;dusica1;Dusica;Vasic;ZENSKO;8/20/1998 00:00:00;KUPAC;14430.5;BRONZANI;3;10001;False;REZERVISANA;REGULAR;3;5;-1;597;149;85
1234510551;1;MAJSTOR I MARGARITA;POZORISTE;200;20;50;270;9/23/2020 08:00:00;250;ZAVRSENO;~/Images/5871dfb79adaf.jpg;Sutjeska 4,Novi Sad,21000;True;1;1500;5;dusica;dusica1;Dusica;Vasic;ZENSKO;8/20/1998 00:00:00;KUPAC;14430.5;BRONZANI;3;10001;False;REZERVISANA;FAN_PIT;3;6;-1;195;20;47
1234515540;6;Pozoriste u kuci;POZORISTE;600;150;100;850;9/22/2020 11:44:00;350;ZAVRSENO;~/Images/20151009124602_329861.jpg;Puskinova 14,Novi Sad,21000;True;1;14000;1;ana123;ana123;Ana;Simic;ZENSKO;12/10/1999 00:00:00;KUPAC;186200;ZLATNI;7;30001;False;REZERVISANA;VIP;10;7;-1;597;139;85
1234550074;7;Lepa Brena;KONCERT;250;110;120;480;10/01/2020 16:00:00;500;ZAVRSENO;~/Images/lepa-Brena-Andreja-Damnjanovic-1-intervju-hello-1140x815-1.jpg;Podrinjska 44,Bijeljina,76300;True;1;993;6;Rade;rade123;Radislav;Stevanovic;MUSKO;8/20/1997 00:00:00;KUPAC;324306.003;ZLATNI;7;324306.003;False;ODUSTANAK;REGULAR;2;8;-1;252;110;120
